%YAML 1.1
%TAG !u! tag:unity3d.com,2011:
--- !u!1045 &1
EditorBuildSettings:
  m_ObjectHideFlags: 0
  serializedVersion: 2
  m_Scenes:
  - enabled: 1
    path: Assets/Examples/Main Menu.unity
    guid: 2f1f74b392018a645acd08e42b82cb86
  - enabled: 1
    path: Assets/Examples/Modules/Achievements/Achievements Scene.unity
    guid: 476d03e928316594d96c800c233f44da
  - enabled: 1
    path: Assets/Examples/Modules/Ads/Ads Scene.unity
    guid: a1d7c91ff83d9ed4c85bc6360be9da88
  - enabled: 1
    path: Assets/Examples/Modules/Channels/Channels Scene.unity
    guid: 6f7f70dd8cdc4e04e8c928dfa6775b4c
  - enabled: 1
    path: Assets/Examples/Modules/Documents/Documents Scene.unity
    guid: 1250197448fa0054cb481dc1b3bb0e4f
  - enabled: 1
    path: Assets/Examples/Modules/Files/Files Scene.unity
    guid: b29762bbb17708345b2ae605a4922fae
  - enabled: 1
    path: Assets/Examples/Modules/GamesCollections/Games Collections Scene.unity
    guid: 429a0b96022c6a24f91370d7da36c9af
  - enabled: 1
    path: Assets/Examples/Modules/Leaderboard/Leaderboard Scene.unity
    guid: b700a5c5fdb0a0b48a3aa169b562b9f9
  - enabled: 1
    path: Assets/Examples/Modules/LeaderboardScoped/Leaderboard Scoped Scene.unity
    guid: 41a477ce8dbf582469a26574c7ffcdb5
  - enabled: 1
    path: Assets/Examples/Modules/Payments/Payments Scene.unity
    guid: 9ee26786f78112e4e97d6d685d5765e2
  - enabled: 1
    path: Assets/Examples/Modules/Player/Player Scene.unity
    guid: ec20dac07e3ceb3498494d83be49a29f
  - enabled: 1
    path: Assets/Examples/Modules/Players/Players Scene.unity
    guid: ccf56ab192b4570439d87a50ec1cb2cd
  - enabled: 1
    path: Assets/Examples/Modules/Socials/Socials Scene.unity
    guid: 36c49524ddeeaa044947f9fe08b84175
  - enabled: 1
    path: Assets/Examples/Modules/Variables/Variables Scene.unity
    guid: 076a15aac81be5e4d89215d472b6cea2
  m_configObjects: {}
